701,296 775,292 852,294 928,292 1012,300 1090,305 1168,307 1240,307 1312,307
697,363 770,360 848,364 930,366 1010,360 1092,368 1167,372 1236,373 1320,381
692,432 767,434 844,428 925,428 1011,438 1095,445 1170,452 1232,433 1320,454
692,502 764,505 847,508 924,502 1006,502 1083,511 1170,510 1238,512 1320,510
688,578 764,580 845,589 922,578 1004,588 1090,586 1156,588 1246,588 1317,580
690,647 764,657 842,660 920,670 1004,652 1097,668 1165,660 1242,658 1315,654
693,717 762,725 842,730 926,739 1004,735 1090,742 1164,730 1240,730 1312,722
697,785 765,793 844,798 925,806 1002,800 1082,806 1160,800 1241,802 1305,789