Pixel Values
701,288 775,292 852,288 928,286 1010,290 1090,285 1166,288 1240,288 1312,300 
697,363 770,360 848,356 925,355 1010,360 1090,360 1167,363 1242,354 1320,370 
692,432 767,434 844,428 925,428 1008,434 1090,434 1170,435 1246,425 1320,440 
692,502 764,505 847,508 924,502 1006,502 1090,510 1170,510 1246,512 1320,510 
688,578 764,580 845,589 922,578 1004,588 1090,586 1168,586 1246,588 1317,580 
690,647 764,657 842,660 920,670 1004,652 1097,668 1165,660 1242,658 1315,654 
693,717 762,725 842,730 926,739 1004,735 1090,742 1164,730 1240,730 1312,722 
697,785 765,793 844,798 925,806 1002,800 1082,806 1160,800 1241,802 1305,789 

Substrate Concentrations
0.05
0.1
0.25
0.4
0.5
0.6
0.7
0.9

Calibration Concentrations
0.05
0.1
0.25
0.4
0.5
0.6
0.7
0.9

Color Channel: green

Threshold: 40

Picture files: .\src\Experiments_4_20_2018\yellow-red-Image1.jpg .\src\Experiments_4_20_2018\yellow-red-Image2.jpg .\src\Experiments_4_20_2018\yellow-red-Image3.jpg
Use pixel area selection: false
Raw Data
118.0	115.0	108.0	117.0	115.0	116.0	114.0	133.0	107.0
114.0	120.0	107.0	124.0	115.0	118.0	113.0	148.0	111.0
107.0	131.0	110.0	130.0	115.0	129.0	107.0	180.0	105.0
102.0	133.0	109.0	136.0	114.0	134.0	112.0	204.0	101.0
107.0	138.0	113.0	139.0	117.0	136.0	111.0	218.0	95.0
108.0	133.0	110.0	143.0	120.0	139.0	108.0	228.0	107.0
108.0	147.0	112.0	145.0	106.0	139.0	109.0	234.0	104.0
113.0	154.0	109.0	146.0	114.0	141.0	108.0	238.0	109.0

Raw Data
114.0	122.0	106.0	124.0	107.0	118.0	113.0	127.0	102.0
113.0	127.0	103.0	133.0	111.0	132.0	110.0	143.0	101.0
111.0	154.0	103.0	153.0	111.0	153.0	105.0	179.0	100.0
101.0	163.0	108.0	166.0	108.0	166.0	101.0	202.0	102.0
107.0	174.0	110.0	173.0	113.0	174.0	107.0	220.0	92.0
95.0	173.0	104.0	172.0	112.0	173.0	103.0	225.0	104.0
108.0	183.0	103.0	184.0	106.0	168.0	104.0	233.0	101.0
116.0	192.0	106.0	189.0	107.0	192.0	105.0	236.0	107.0

Raw Data
113.0	123.0	104.0	121.0	110.0	126.0	111.0	128.0	105.0
109.0	134.0	107.0	140.0	110.0	131.0	110.0	143.0	106.0
109.0	163.0	107.0	163.0	112.0	161.0	106.0	181.0	101.0
104.0	176.0	107.0	180.0	110.0	186.0	110.0	201.0	104.0
105.0	189.0	111.0	188.0	114.0	195.0	113.0	216.0	91.0
106.0	192.0	106.0	191.0	111.0	191.0	102.0	226.0	102.0
104.0	201.0	111.0	200.0	109.0	183.0	108.0	235.0	99.0
113.0	210.0	111.0	211.0	109.0	215.0	106.0	238.0	105.0

Calibration Averaged Data
110.5
112.0
106.0
106.5
103.0
107.5
106.5
108.5

Calibration Normalized Data
22.5
36.0
74.0
97.5
115.0
120.5
127.5
129.5

Calibration Slope: 133.2
Calibration Intercept: 32.0519

Calibration Averaged Data
107.5
105.5
102.5
101.5
99.5
103.5
102.5
106.0

Calibration Normalized Data
19.5
37.5
76.5
100.5
120.5
121.5
130.5
130.0

Calibration Slope: 135.8
Calibration Intercept: 32.6614

Calibration Averaged Data
108.0
108.0
103.5
107.0
102.0
102.0
103.5
105.5

Calibration Normalized Data
20.0
35.0
77.5
94.0
114.0
124.0
131.5
132.5

Calibration Slope: 139.2
Calibration Intercept: 30.1466

Averaged Data
113.0	111.5	114.5	
110.5	111.0	114.0	
108.5	112.5	111.0	
105.5	111.5	113.0	
110.0	115.0	114.0	
109.0	115.0	114.0	
110.0	109.0	107.5	
111.0	111.5	111.0	

Normalized Data
2.0	5.5	1.5	
9.5	13.0	4.0	
22.5	17.5	18.0	
27.5	24.5	21.0	
28.0	24.0	22.0	
24.0	28.0	25.0	
37.0	36.0	31.5	
43.0	34.5	30.0	

Concentration Data
-0.225615	-0.199339	-0.229369
-0.169309	-0.143032	-0.210600
-0.071711	-0.109248	-0.105495
-0.034173	-0.056696	-0.082972
-0.030420	-0.060450	-0.075465
-0.060450	-0.030420	-0.052942
0.037148	0.029640	-0.004143
0.082193	0.018379	-0.015405

Averaged Data
110.0	106.5	110.0	
108.0	107.0	110.5	
107.0	107.0	108.0	
104.5	108.0	104.5	
108.5	111.5	110.0	
99.5	108.0	107.5	
105.5	104.5	105.0	
111.0	106.5	106.0	

Normalized Data
12.0	17.5	8.0	
19.0	26.0	21.5	
47.0	46.0	45.0	
58.5	58.0	61.5	
65.5	61.5	64.0	
73.5	64.0	65.5	
77.5	79.5	63.0	
81.0	82.5	86.0	

Concentration Data
-0.152146	-0.111645	-0.181601
-0.100599	-0.049053	-0.082190
0.105586	0.098222	0.090859
0.190270	0.186588	0.212361
0.241816	0.212361	0.230770
0.300726	0.230770	0.241816
0.330181	0.344909	0.223406
0.355954	0.367000	0.392773

Averaged Data
108.5	107.0	110.5	
108.0	108.5	110.0	
108.0	109.5	109.0	
105.5	108.5	110.0	
108.0	112.5	113.5	
106.0	108.5	106.5	
107.5	110.0	108.5	
112.0	110.0	107.5	

Normalized Data
14.5	14.0	15.5	
26.0	31.5	21.0	
55.0	53.5	52.0	
70.5	71.5	76.0	
81.0	75.5	81.5	
86.0	82.5	84.5	
93.5	90.0	74.5	
98.0	101.0	107.5	

Concentration Data
-0.112404	-0.115996	-0.105220
-0.029789	0.009723	-0.065708
0.178545	0.167769	0.156993
0.289895	0.297079	0.329407
0.365326	0.325815	0.368918
0.401246	0.376102	0.390470
0.455125	0.429981	0.318631
0.487453	0.509004	0.555700

Rate Data
0.0566
0.0698
0.1251
0.162
0.1979
0.2308
0.209
0.2026

Rate Data
0.0417
0.0764
0.1385
0.1769
0.1931
0.2033
0.2002
0.2453

Rate Data
0.0621
0.0724
0.1312
0.2062
0.2222
0.2217
0.1614
0.2856

Average Rate Data
0.053467
0.072867
0.1316
0.1817
0.2044
0.2186
0.1902
0.2445

Standard Deviation Rate Data
0.010555
0.003325
0.006709
0.022488
0.015601
0.01401
0.025327
0.041506

Removing concentration: 0.05
Removing rate: 0.053467

Vmax: 0.2626129297486852
Km: 0.20834082903683387
R2_LineweaverBurk: 0.988004348470825

