Pixel Values
701,288 775,292 852,288 928,286 1010,290 1090,285 1166,288 1240,288 1312,300 
697,363 770,360 848,356 925,355 1010,360 1090,360 1167,363 1242,354 1320,370 
692,432 767,434 844,428 925,428 1008,434 1090,434 1170,435 1246,425 1320,440 
692,502 764,505 847,508 924,502 1006,502 1090,510 1170,510 1246,512 1320,510 
688,578 764,580 845,589 922,578 1004,588 1090,586 1168,586 1246,588 1317,580 
690,647 764,657 842,660 920,670 1004,652 1097,668 1165,660 1242,658 1315,654 
693,717 762,725 842,730 926,739 1004,735 1090,742 1164,730 1240,730 1312,722 
697,785 765,793 844,798 925,806 1002,800 1082,806 1160,800 1241,802 1305,789 

Substrate Concentrations
0.05
0.1
0.25
0.4
0.5
0.6
0.7
0.9

Calibration Concentrations
0.05
0.1
0.25
0.4
0.5
0.6
0.7
0.9

Color Channel: green

Threshold: 30

Picture files: .\src\May_3_2018\yellow-red_5_3_18-Image1.jpg .\src\May_3_2018\yellow-red_5_3_18-Image2.jpg .\src\May_3_2018\yellow-red_5_3_18-Image3.jpg
Use pixel area selection: false
Raw Data
107.0	117.0	102.0	106.0	106.0	122.0	114.0	117.0	116.0
107.0	127.0	86.0	110.0	112.0	124.0	113.0	129.0	120.0
106.0	140.0	111.0	116.0	114.0	131.0	116.0	144.0	117.0
101.0	142.0	106.0	124.0	108.0	139.0	120.0	158.0	114.0
105.0	147.0	114.0	138.0	119.0	146.0	114.0	167.0	109.0
107.0	152.0	113.0	160.0	114.0	150.0	112.0	190.0	113.0
110.0	155.0	113.0	148.0	111.0	149.0	111.0	200.0	114.0
113.0	157.0	113.0	149.0	108.0	146.0	111.0	211.0	118.0

Raw Data
104.0	121.0	96.0	111.0	103.0	125.0	117.0	117.0	114.0
107.0	142.0	86.0	131.0	109.0	145.0	115.0	130.0	117.0
108.0	175.0	107.0	144.0	108.0	167.0	113.0	141.0	115.0
101.0	187.0	109.0	150.0	105.0	177.0	118.0	157.0	112.0
101.0	193.0	111.0	168.0	120.0	185.0	111.0	166.0	110.0
104.0	194.0	112.0	187.0	115.0	189.0	110.0	187.0	113.0
107.0	206.0	114.0	196.0	109.0	185.0	107.0	197.0	112.0
111.0	204.0	111.0	197.0	105.0	194.0	108.0	206.0	114.0

Raw Data
108.0	123.0	102.0	116.0	104.0	125.0	115.0	117.0	116.0
110.0	149.0	88.0	132.0	104.0	147.0	114.0	130.0	117.0
105.0	187.0	105.0	152.0	109.0	180.0	111.0	139.0	114.0
101.0	202.0	111.0	161.0	110.0	192.0	118.0	157.0	113.0
100.0	212.0	111.0	175.0	116.0	199.0	113.0	166.0	111.0
106.0	218.0	114.0	205.0	114.0	202.0	110.0	187.0	112.0
105.0	222.0	112.0	215.0	107.0	208.0	108.0	197.0	113.0
110.0	222.0	115.0	221.0	108.0	216.0	109.0	211.0	114.0

Calibration Averaged Data
115.0
116.5
116.5
117.0
111.5
112.5
112.5
114.5

Calibration Normalized Data
2.0
12.5
27.5
41.0
55.5
77.5
87.5
96.5

Calibration Slope: 117.3
Calibration Intercept: -1.306

Calibration Averaged Data
115.5
116.0
114.0
115.0
110.5
111.5
109.5
111.0

Calibration Normalized Data
1.5
14.0
27.0
42.0
55.5
75.5
87.5
95.0

Calibration Slope: 115.2
Calibration Intercept: -0.6471

Calibration Averaged Data
115.5
115.5
112.5
115.5
112.0
111.0
110.5
111.5

Calibration Normalized Data
1.5
14.5
26.5
41.5
54.0
76.0
86.5
99.5

Calibration Slope: 118.0
Calibration Intercept: -1.6446

Averaged Data
104.5	104.0	110.0	
96.5	99.0	112.5	
108.5	112.5	115.0	
103.5	107.0	114.0	
109.5	116.5	116.5	
110.0	113.5	113.0	
111.5	112.0	111.0	
113.0	110.5	109.5	

Normalized Data
12.5	2.0	12.0	
30.5	11.0	11.5	
31.5	3.5	16.0	
38.5	17.0	25.0	
37.5	21.5	29.5	
42.0	46.5	37.0	
43.5	36.0	38.0	
44.0	38.5	36.5	

Concentration Data
0.117698	0.028184	0.113436
0.271151	0.104910	0.109173
0.279676	0.040972	0.147536
0.339352	0.156061	0.224263
0.330827	0.194425	0.262626
0.369190	0.407553	0.326564
0.381978	0.318039	0.335090
0.386240	0.339352	0.322302

Averaged Data
100.0	99.5	110.0	
96.5	97.5	112.0	
107.5	107.5	110.5	
105.0	107.0	111.5	
106.0	115.5	115.5	
108.0	113.5	112.5	
110.5	111.5	108.0	
111.0	108.0	106.5	

Normalized Data
21.0	11.5	15.0	
45.5	33.5	33.0	
67.5	36.5	56.5	
82.0	43.0	65.5	
87.0	52.5	69.5	
86.0	73.5	76.5	
95.5	84.5	77.0	
93.0	89.0	87.5	

Concentration Data
0.187909	0.105444	0.135826
0.400582	0.296416	0.292076
0.591555	0.322457	0.496069
0.717423	0.378881	0.574194
0.760826	0.461346	0.608916
0.752145	0.643638	0.669680
0.834610	0.739124	0.674020
0.812909	0.778187	0.765166

Averaged Data
105.0	103.0	109.5	
99.0	96.0	109.0	
105.0	107.0	110.0	
106.0	110.5	114.0	
105.5	113.5	114.5	
110.0	114.0	112.0	
108.5	109.5	107.5	
112.5	111.5	108.5	

Normalized Data
18.0	13.0	15.5	
50.0	36.0	38.0	
82.0	45.0	70.0	
96.0	50.5	78.0	
106.5	61.5	84.5	
108.0	91.0	90.0	
113.5	105.5	100.5	
109.5	109.5	107.5	

Concentration Data
0.166480	0.124107	0.145293
0.437666	0.319022	0.335971
0.708853	0.395293	0.607158
0.827497	0.441903	0.674954
0.916480	0.535124	0.730039
0.929192	0.785124	0.776649
0.975802	0.908005	0.865632
0.941903	0.941903	0.924954

Rate Data
0.0244
0.0833
0.2146
0.2441
0.2928
0.28
0.2969
0.2778

Rate Data
0.048
0.1071
0.1772
0.1429
0.1703
0.1888
0.295
0.3013

Rate Data
0.0159
0.1134
0.2298
0.2253
0.2337
0.225
0.2653
0.3013

Average Rate Data
0.029433
0.101267
0.2072
0.2041
0.232267
0.231267
0.285733
0.293467

Standard Deviation Rate Data
0.016631
0.015875
0.02707
0.053828
0.061263
0.045922
0.017721
0.013568

Removing concentration: 0.05
Removing rate: 0.029433

Removing concentration: 0.1
Removing rate: 0.101267

Removing concentration: 0.25
Removing rate: 0.2072

Vmax: 0.24901374369625606
Km: 0.05613438855229992
R2_LineweaverBurk: 1.0

