Pixel Values
701,298 775,292 852,288 928,286 1010,290 1080,287 1166,288 1240,298 1312,300 
697,363 770,360 848,356 925,355 1010,360 1090,360 1167,363 1242,360 1320,370 
692,432 767,434 844,428 925,428 1008,434 1090,434 1170,435 1246,430 1320,440 
692,502 764,505 847,508 924,502 1006,502 1090,510 1170,510 1246,512 1320,510 
688,578 764,580 845,589 922,578 1004,588 1090,586 1168,586 1246,588 1317,580 
690,647 764,657 842,660 916,656 1006,663 1074,660 1165,660 1242,658 1315,654 
677,730 762,725 842,730 926,739 1004,735 1090,742 1164,730 1240,730 1312,722 
680,795 765,793 844,798 925,806 1002,800 1082,806 1160,800 1241,802 1305,789 

Substrate Concentrations
0.05
0.1
0.25
0.4
0.5
0.6
0.7
0.9

Calibration Concentrations
0.05
0.1
0.25
0.4
0.5
0.6
0.7
0.9

Color Channel: red

Threshold: 10

Picture files: .\src\Experiments_4_20_2018\clear-blue2-Image1.jpg .\src\Experiments_4_20_2018\clear-blue2-Image2.jpg .\src\Experiments_4_20_2018\clear-blue2-Image3.jpg
Use pixel area selection: true
Raw Data
102.77393617021276	102.29706601466992	103.09540229885057	105.15032679738562	103.80409731113957	120.89333333333333	106.08237747653806	115.03314917127072	110.39185393258427
102.06089309878213	110.13448275862069	103.03211009174312	109.93942403177756	110.35859124866596	110.13065326633166	109.31882591093117	122.53703703703704	110.26658624849216
100.69440832249676	103.53663570691434	105.5954592363261	113.55296610169492	116.45206684256816	112.80193236714976	109.99075975359342	146.21984435797665	106.49561952440551
98.62116991643454	101.84272051009565	105.57758620689656	113.4672619047619	115.63974591651542	112.74152952565343	111.80632411067194	173.53888280394304	109.22088835534214
100.14084507042253	103.45696721311475	108.47450980392156	114.727959697733	116.72781655034895	115.78496868475992	112.81330472103004	188.3903803131991	111.72
101.21219822109276	106.10303687635574	110.20223577235772	118.55263157894737	117.72431332655137	148.5938864628821	114.11291963377415	205.80683156654888	113.08190709046455
141.0	113.60496183206106	110.95958549222797	118.32007952286283	114.74162011173185	119.09859154929578	116.0734649122807	222.0709010339734	121.84933171324423
192.3426769446391	112.67576419213974	111.08770053475936	115.1984897518878	115.46825396825396	118.20213903743316	117.0649496080627	233.02857142857144	121.3559748427673

Raw Data
103.43030303030304	100.70294784580499	99.8273381294964	103.71800208116545	101.43415178571429	118.85493827160494	103.02363823227132	113.05071664829107	106.21034077555817
100.47162673392181	102.03023983315954	100.88397790055248	108.56372549019608	108.68545994065282	109.16093117408907	106.3758389261745	119.76018099547511	106.0832298136646
97.225	101.88381742738589	102.34504132231405	110.57835820895522	113.2093441150045	111.7159209157128	107.28586387434555	144.00299401197606	104.34340991535672
95.19312602291326	101.90974358974358	103.86472424557752	113.68614514608859	114.0	113.3162623539982	108.35429769392033	169.95980392156864	106.92279855247286
96.51600512163893	102.18228630278064	105.03571428571429	115.96325719960278	112.99512195121952	117.82099343955014	108.91347207009858	185.56629213483146	108.67816091954023
98.71638141809291	105.61046511627907	107.14662447257383	122.65318818040436	114.3841131664853	149.26442307692307	109.41399082568807	202.137106918239	113.8157894736842
132.0	110.0284090909091	104.47661870503597	119.49479659413434	112.71217712177122	119.00524658971669	113.54592901878914	212.31972789115648	117.42316784869976
187.6377379619261	112.46247240618102	107.69735327963176	117.60873983739837	113.25641025641026	118.40589569160997	113.73499433748584	223.50471698113208	120.07293354943273

Raw Data
104.4692118226601	103.56109134045077	103.07815845824412	105.60702151755379	102.55651105651106	124.28490028490029	105.134994807892	114.15317286652079	107.10129564193169
101.53559322033898	104.6842105263158	101.54911838790932	112.57653528872594	109.33221476510067	113.45645933014355	109.43133265513734	120.9228998849252	108.93589743589743
100.54882571075402	104.89866939611055	104.43661971830986	115.2804054054054	115.58695652173913	113.14232209737828	109.71386430678466	144.76751946607342	105.5370611183355
99.94080604534005	107.60021786492375	107.05544147843942	117.04536679536679	114.33458294283037	117.63661710037175	110.8907388137357	171.5425963488844	107.50063532401525
105.17256637168141	108.01141078838174	107.54705274043434	122.10646766169154	117.42231075697211	121.84279069767442	110.12796833773088	186.00932400932402	113.24452554744525
100.81571428571428	113.47426841574168	111.15377268385865	125.65485714285714	116.4150289017341	150.94648829431438	111.60820045558087	199.93225806451613	114.86808510638298
133.0	115.30010834236187	109.36102719033232	125.22388059701493	115.96246973365618	125.22574055158324	115.97987288135593	217.41617357001974	120.00848484848485
189.29055944055943	118.91141942369264	112.1431623931624	123.52434077079107	115.73874862788145	126.41164021164022	116.48008849557522	226.1107142857143	126.84709480122324

Calibration Averaged Data
108.2371
109.7927
108.2432
110.5136
112.2667
113.5974
118.9614
119.2105

Calibration Normalized Data
6.796
12.7443
37.9766
63.0253
76.1237
92.2094
103.1095
113.8181

Calibration Slope: 135.3
Calibration Intercept: 4.0389

Calibration Averaged Data
104.617
106.2295
105.8146
107.6385
108.7958
111.6149
115.4845
116.904

Calibration Normalized Data
8.4337
13.5307
38.1884
62.3213
76.7705
90.5222
96.8352
106.6007

Calibration Slope: 125.3
Calibration Intercept: 6.835

Calibration Averaged Data
106.1181
109.1836
107.6255
109.1957
111.6862
113.2381
117.9942
121.6636

Calibration Normalized Data
8.0351
11.7393
37.142
62.3469
74.3231
86.6942
99.422
104.4471

Calibration Slope: 125.1
Calibration Intercept: 5.8016

Averaged Data
102.9347	103.4497	104.9432	
102.5465	106.6954	109.8387	
103.1449	111.0238	113.2214	
102.0994	110.6087	113.723	
104.3077	112.6012	114.7706	
105.7072	113.9633	115.9186	
125.9798	112.8506	115.4075	
151.7152	113.278	116.2666	

Normalized Data
-0.6376	1.7006	15.9501	
7.588	3.244	0.292	
0.3917	2.5292	-0.4195	
-0.2567	2.8586	-0.9815	
-0.8507	2.1268	1.0144	
0.3958	4.5893	32.6753	
-12.3748	5.4695	3.6911	
-39.0394	1.9205	1.9355	

Concentration Data
-0.034564	-0.017282	0.088035
0.026231	-0.005875	-0.027693
-0.026956	-0.011158	-0.032952
-0.031749	-0.008724	-0.037106
-0.036139	-0.014132	-0.022354
-0.026926	0.004068	0.211651
-0.121313	0.010574	-0.002571
-0.318391	-0.015657	-0.015546

Averaged Data
101.6288	100.6307	102.2289	
100.6778	104.7847	107.5306	
99.785	107.7772	110.2476	
99.5289	108.9324	111.1771	
100.7759	109.0154	110.9543	
102.9315	110.7654	111.8991	
118.2383	108.5944	113.1291	
147.6675	110.4769	113.4957	

Normalized Data
-0.9259	3.0873	16.626	
1.3524	3.779	1.6303	
2.0988	2.8012	1.4683	
2.3808	4.7537	2.1392	
1.4064	6.9479	6.8667	
2.679	11.8878	37.3653	
-8.2099	10.9004	5.8761	
-35.205	7.1318	4.9102	

Concentration Data
-0.061939	-0.029910	0.078140
-0.043756	-0.024389	-0.041538
-0.037799	-0.032193	-0.042831
-0.035548	-0.016611	-0.037476
-0.043325	0.000901	0.000253
-0.033168	0.040326	0.243658
-0.120071	0.032445	-0.007653
-0.335515	0.002369	-0.015362

Averaged Data
103.7737	102.8173	103.8458	
101.5424	105.4407	109.3818	
102.4927	110.0118	112.6504	
103.4981	110.695	112.6127	
106.3598	112.4847	113.7751	
105.9847	113.7844	114.0116	
121.1805	112.6617	115.9712	
150.7169	113.941	116.1094	

Normalized Data
-0.2126	2.7897	20.4391	
3.1418	7.1358	4.0747	
2.406	5.2686	0.4919	
4.1021	6.3504	5.0239	
1.6516	9.6218	8.0677	
7.4896	11.8705	36.9349	
-5.8804	12.5622	9.2545	
-31.8055	9.5833	10.3022	

Concentration Data
-0.048075	-0.024076	0.117006
-0.021261	0.010665	-0.013804
-0.027143	-0.004261	-0.042444
-0.013585	0.004387	-0.006217
-0.033173	0.030537	0.018114
0.013493	0.048512	0.248867
-0.093381	0.054042	0.027601
-0.300616	0.030229	0.035976

Rate Data
-0.0068
-0.0237
-1.0E-4
0.0091
0.0015
0.0202
0.014
0.0089

Rate Data
-0.0034
0.0083
0.0034
0.0066
0.0223
0.0222
0.0217
0.0229

Rate Data
0.0145
0.0069
-0.0047
0.0154
0.0202
0.0186
0.0151
0.0258

Average Rate Data
0.001433
-0.002833
-4.67E-4
0.010367
0.014667
0.020333
0.016933
0.0192

Standard Deviation Rate Data
0.011443
0.018085
0.004062
0.004535
0.011451
0.001804
0.004165
0.009037

Removing concentration: 0.05
Removing rate: 0.001433

Vmax: -0.0027401470639163645
Km: -0.09290981119914353
R2_LineweaverBurk: 0.060666312906597394

