Pixel Values
701,298 775,292 852,288 928,286 1010,290 1080,287 1166,288 1240,298 1312,300 
697,363 770,360 848,356 925,355 1010,360 1090,360 1167,363 1242,360 1320,370 
692,432 767,434 844,428 925,428 1008,434 1090,434 1170,435 1246,430 1320,440 
692,502 764,505 847,508 924,502 1006,502 1090,510 1170,510 1246,512 1320,510 
688,578 764,580 845,589 922,578 1004,588 1090,586 1168,586 1246,588 1317,580 
690,647 764,657 842,660 916,656 1006,663 1074,660 1165,660 1242,658 1315,654 
701,723 762,725 842,730 926,739 1004,735 1090,742 1164,730 1240,730 1312,722 
695,768 765,793 844,798 925,806 1002,800 1082,806 1160,800 1241,802 1305,789 

Substrate Concentrations
0.05
0.1
0.25
0.4
0.5
0.6
0.7
0.9

Calibration Concentrations
0.05
0.1
0.25
0.4
0.5
0.6
0.7
0.9

Color Channel: red

Threshold: 35

Picture files: .\src\Experiments_4_20_2018\clear-blue2-Image1.jpg .\src\Experiments_4_20_2018\clear-blue2-Image2.jpg .\src\Experiments_4_20_2018\clear-blue2-Image3.jpg
Use pixel area selection: false
Raw Data
106.0	102.0	101.0	102.0	100.0	122.0	107.0	113.0	114.0
101.0	114.0	100.0	109.0	108.0	110.0	111.0	119.0	112.0
105.0	106.0	108.0	111.0	118.0	112.0	108.0	146.0	106.0
96.0	102.0	103.0	112.0	115.0	114.0	111.0	171.0	111.0
103.0	105.0	107.0	109.0	119.0	114.0	114.0	187.0	112.0
101.0	107.0	109.0	122.0	117.0	149.0	114.0	205.0	114.0
105.0	118.0	111.0	118.0	111.0	121.0	115.0	222.0	124.0
113.0	115.0	112.0	113.0	114.0	121.0	118.0	234.0	121.0

Raw Data
107.0	102.0	97.0	103.0	100.0	120.0	104.0	114.0	108.0
101.0	102.0	99.0	108.0	107.0	108.0	106.0	117.0	107.0
98.0	104.0	104.0	105.0	115.0	109.0	106.0	143.0	106.0
91.0	102.0	103.0	114.0	115.0	115.0	107.0	169.0	109.0
98.0	105.0	104.0	114.0	115.0	120.0	110.0	188.0	109.0
99.0	105.0	105.0	127.0	113.0	148.0	107.0	205.0	115.0
97.0	113.0	98.0	122.0	109.0	119.0	116.0	209.0	118.0
110.0	116.0	105.0	121.0	113.0	117.0	116.0	225.0	119.0

Raw Data
104.0	102.0	103.0	102.0	99.0	126.0	105.0	113.0	109.0
100.0	103.0	98.0	114.0	106.0	114.0	110.0	119.0	109.0
98.0	106.0	103.0	112.0	116.0	109.0	110.0	142.0	104.0
99.0	106.0	105.0	116.0	114.0	119.0	110.0	171.0	107.0
111.0	107.0	106.0	120.0	120.0	122.0	108.0	191.0	113.0
97.0	114.0	111.0	130.0	113.0	152.0	111.0	202.0	114.0
100.0	115.0	105.0	125.0	114.0	124.0	116.0	221.0	120.0
112.0	119.0	112.0	124.0	114.0	128.0	117.0	228.0	126.0

Calibration Averaged Data
110.5
111.5
107.0
111.0
113.0
114.0
119.5
119.5

Calibration Normalized Data
2.5
7.5
39.0
60.0
74.0
91.0
102.5
114.5

Calibration Slope: 140.5
Calibration Intercept: -0.0799

Calibration Averaged Data
106.0
106.5
106.0
108.0
109.5
111.0
117.0
117.5

Calibration Normalized Data
8.0
10.5
37.0
61.0
78.5
94.0
92.0
107.5

Calibration Slope: 127.4
Calibration Intercept: 5.3325

Calibration Averaged Data
107.0
109.5
107.0
108.5
110.5
112.5
118.0
121.5

Calibration Normalized Data
6.0
9.5
35.0
62.5
80.5
89.5
103.0
106.5

Calibration Slope: 132.7
Calibration Intercept: 3.5158

Averaged Data
103.5	100.5	103.5	
100.5	104.0	109.5	
106.5	113.0	113.0	
99.5	109.0	113.0	
105.0	113.0	116.5	
105.0	113.0	115.5	
108.0	111.0	113.0	
112.5	113.0	116.0	

Normalized Data
-1.5	1.5	18.5	
13.5	5.0	0.5	
-0.5	-2.0	-1.0	
2.5	3.0	1.0	
0.0	-4.0	-2.5	
2.0	9.0	33.5	
10.0	7.0	8.0	
2.5	0.0	5.0	

Concentration Data
-0.010107	0.011245	0.132241
0.096654	0.036156	0.004127
-0.002990	-0.013666	-0.006549
0.018362	0.021921	0.007686
0.000569	-0.027901	-0.017225
0.014804	0.064626	0.239003
0.071743	0.050391	0.057508
0.018362	0.000569	0.036156

Averaged Data
102.0	98.5	102.0	
100.0	103.0	106.5	
101.0	109.5	110.5	
97.0	109.0	111.0	
101.0	109.5	112.5	
102.0	109.0	110.0	
97.5	103.5	112.5	
107.5	109.0	114.5	

Normalized Data
0.0	4.5	18.0	
2.0	5.0	1.5	
3.0	-4.5	-1.5	
5.0	5.0	4.0	
4.0	4.5	7.5	
3.0	18.0	38.0	
15.5	18.5	6.5	
8.5	12.0	2.5	

Concentration Data
-0.041856	-0.006535	0.099431
-0.026158	-0.002610	-0.030082
-0.018308	-0.077178	-0.053630
-0.002610	-0.002610	-0.010459
-0.010459	-0.006535	0.017013
-0.018308	0.099431	0.256417
0.079808	0.103356	0.009164
0.024863	0.052335	-0.022233

Averaged Data
103.5	101.0	102.0	
99.0	102.0	108.0	
100.5	109.5	113.0	
102.0	109.5	112.0	
108.5	113.0	114.0	
104.0	112.0	112.0	
102.5	109.5	115.0	
112.0	113.0	115.5	

Normalized Data
-1.5	1.0	24.0	
4.0	12.0	6.0	
5.5	2.5	-4.0	
4.0	6.5	7.0	
-1.5	7.0	8.0	
10.0	18.0	40.0	
12.5	15.5	9.0	
7.0	11.0	12.5	

Concentration Data
-0.037798	-0.018959	0.154365
0.003649	0.063935	0.018720
0.014953	-0.007655	-0.056638
0.003649	0.022488	0.026256
-0.037798	0.026256	0.033792
0.048864	0.109150	0.274937
0.067703	0.090310	0.041328
0.026256	0.056399	0.067703

Rate Data
-0.0138
-0.0465
0.009
-0.0074
-0.0192
0.017
-0.002
0.0039

Rate Data
-0.0151
0.0139
0.003
3.0E-4
0.0271
0.0223
0.02
0.0279

Rate Data
0.0111
0.0073
-0.025
0.0093
0.0255
0.018
-0.0081
0.0158

Average Rate Data
-0.005933
-0.008433
-0.004333
7.33E-4
0.011133
0.0191
0.0033
0.015867

Standard Deviation Rate Data
0.014766
0.033131
0.018148
0.008358
0.026282
0.002816
0.014781
0.012

Removing concentration: 0.05
Removing rate: -0.005933

Vmax: 0.0031351862643201386
Km: -0.08788304127723934
R2_LineweaverBurk: 0.11842614755142444

