Pixel Values
701,296 775,292 852,294 928,292 1012,300 1090,305 1168,307 1240,307 1312,307 
697,363 770,360 848,364 930,366 1010,360 1092,368 1167,372 1236,373 1320,381 
692,432 767,434 844,428 925,428 1011,438 1095,445 1170,452 1232,433 1320,454 
692,502 764,505 847,508 924,502 1006,502 1083,511 1170,510 1238,512 1320,510 
688,578 764,580 845,589 922,578 1004,588 1090,586 1156,588 1246,588 1317,580 
690,647 764,657 842,660 920,670 1004,652 1097,668 1165,660 1242,658 1315,654 
693,717 762,725 842,730 926,739 1004,735 1090,742 1164,730 1240,730 1312,722 
697,785 765,793 844,798 925,806 1002,800 1082,806 1160,800 1241,802 1305,789 

Substrate Concentrations
0.05
0.1
0.25
0.4
0.5
0.6
0.7
0.9

Calibration Concentrations
0.05
0.1
0.2
0.3
0.4
0.5
0.6
0.7

Color Channel: blue

Threshold: 40

Picture files: .\src\May_3_2018\clear-yellow3_5_3_18-Image1.jpg .\src\May_3_2018\clear-yellow3_5_3_18-Image2.jpg .\src\May_3_2018\clear-yellow3_5_3_18-Image3.jpg
Use pixel area selection: true
Raw Data
140.67693315858455	137.84375	131.8815476190476	127.5941943127962	126.4040579710145	130.15380184331798	131.4967551622419	131.80024509803923	133.85679611650485
135.36072772898368	130.45471124620062	123.41252194265653	122.18983807928531	123.38775510204081	129.1860338243317	129.4791547687036	134.08391608391608	129.75544794188863
127.65139318885448	125.98692810457516	121.15388919977616	123.29057591623037	121.9812108559499	127.38573659552317	125.43889190657252	136.31784702549575	130.7937576499388
126.34978138663335	124.63051251489868	121.41741071428571	128.764675592173	128.75477542591636	128.0502617801047	120.62156334231805	136.7820440429136	131.21581450653983
126.79948420373952	125.56182472989195	122.4107042253521	129.78947368421052	128.3803177857509	125.88235294117646	117.33227848101266	136.35884057971015	129.71923743500867
130.13015463917526	128.57546563904944	124.48345153664303	128.71300448430495	124.05388917132689	120.63856041131105	114.61003861003861	142.11896745230078	132.03123192596877
135.02033898305083	135.81517509727627	129.9523241954708	131.03603603603602	121.48029818956337	121.12972085385879	121.79071068830442	151.22541966426857	139.47329192546584
142.46273712737127	143.1894873458793	135.5263811297331	135.0198250728863	126.44333333333333	127.52299829642249	130.9751479289941	163.46413243408952	146.20404295641188

Raw Data
136.58788676761026	134.8816199376947	126.52048192771085	125.79636150234742	121.88921282798835	129.05070422535212	126.99940652818991	127.43980343980344	129.05882352941177
130.16098484848484	129.56723716381418	120.11525029103609	121.05165637282425	120.5556762629006	128.34787410270567	124.48968768414849	129.2424418604651	126.59023228111971
123.01177199504338	129.07980652962516	115.8178206583428	126.09984317825405	116.80298189563365	128.33350979354157	120.99558742415886	131.7626348665531	126.72671568627452
122.86800754242614	130.51920768307323	116.80247608328644	132.40851735015772	124.80944963655244	132.1326794011358	117.34422772799157	132.6358511837655	128.09096209912536
123.2848948374761	132.00365408038977	118.57784090909091	135.20779914529913	123.50598646538262	129.87665647298675	113.43428571428572	131.85302430751838	124.93974507531865
125.34274711168165	137.1712158808933	121.22370714700756	133.82498593134497	119.65342052313883	126.88350983358548	110.81263736263736	136.86791383219955	126.76854599406528
131.23699802501645	143.83133291219204	125.40655339805825	137.69034406215317	117.1936	127.32973556395035	118.68781025923883	147.07429245283018	136.77871825876662
139.33737373737372	150.51825752722613	131.17884130982367	142.3271995399655	123.02978488692774	135.0369553226696	127.86062717770035	159.05535055350555	142.56620428751577

Raw Data
139.66029023746702	138.48828606658446	129.57951807228915	129.45816266822703	124.19789227166277	131.16006984866124	129.3910218546958	129.57933579335793	131.70548367221195
133.2433628318584	134.94330518697225	122.40610328638498	125.34455667789001	123.20570813139473	133.00109769484084	127.93089663049686	131.84810126582278	128.13485851896448
125.27935723114956	136.0880239520958	118.4920724801812	133.43500511770728	121.08808016877637	134.07943187795897	123.81078167115903	134.38190096755835	129.85027388922703
125.89	139.9836956521739	118.93520642201835	141.1920042083114	126.61382536382537	139.61882229232387	120.06881948120699	134.96103896103895	130.254662004662
125.25257731958763	142.47450509898022	119.99305555555556	144.41738197424894	126.74831693423097	137.80869104398516	115.43068783068783	134.28885135135135	127.49571183533448
127.4534360950546	148.3205596107056	122.79905437352245	143.5993265993266	121.54288649203903	136.38824125696908	112.99341744377399	139.68296795952782	129.69391304347826
133.34215751158175	155.08799497171591	128.1701219512195	148.5453038674033	119.46203554119548	137.7712276906436	121.48321408915795	149.68865121806297	138.84648318042812
142.0107599193006	162.94592875318065	134.04554079696393	153.8156108597285	125.61021654636313	145.70362239297475	129.7590076786769	161.76923076923077	144.35863377609107

Calibration Averaged Data
132.6768
129.6173
128.1163
125.9187
123.5258
123.3206
130.632
138.5896

Calibration Normalized Data
-0.8766
4.4666
8.2015
10.8633
12.833
18.7984
20.5934
24.8745

Calibration Slope: 36.3
Calibration Intercept: -0.4722

Calibration Averaged Data
128.0291
125.54
123.8612
122.7176
119.187
118.7906
127.7333
135.2134

Calibration Normalized Data
-0.5893
3.7024
7.9014
9.9183
12.666
18.0773
19.341
23.842

Calibration Slope: 34.9
Calibration Intercept: -0.5658

Calibration Averaged Data
130.5483
128.0329
126.8305
125.1617
121.4632
121.3437
130.1648
137.0588

Calibration Normalized Data
-0.969
3.8152
7.5514
9.7993
12.8257
18.3393
19.5239
24.7104

Calibration Slope: 36.3
Calibration Intercept: -0.9673

Averaged Data
136.2792	129.1428	128.9504	
129.3866	123.4001	126.4335	
124.4026	121.5676	123.7101	
123.8836	125.0861	124.6882	
124.6051	125.3955	122.8563	
127.3068	124.2687	119.332	
132.4863	125.7163	121.6355	
138.9946	130.9849	128.7092	

Normalized Data
1.5645	-1.5486	1.2034	
1.0681	-1.2103	2.7525	
1.5843	1.723	3.6756	
0.7469	3.6786	3.3621	
0.9567	4.394	3.0261	
1.2687	4.4443	1.3066	
3.3289	5.3197	-0.5058	
4.1949	4.0349	-1.1862	

Concentration Data
0.056107	-0.029653	0.046160
0.042433	-0.020333	0.088835
0.056653	0.060474	0.114264
0.033584	0.114347	0.105628
0.039364	0.134055	0.096372
0.047959	0.135441	0.049003
0.104713	0.159556	-0.000926
0.128570	0.124163	-0.019669

Averaged Data
131.5542	124.2048	124.4443	
125.1381	120.3355	122.5227	
119.4148	116.3104	118.8993	
119.8352	120.806	121.0768	
120.9314	121.0419	118.4701	
123.2832	120.4386	115.233	
128.3218	121.3001	117.9407	
135.2581	127.1043	125.4452	

Normalized Data
3.3274	1.5916	4.6064	
4.4291	0.7162	5.8252	
9.665	9.7894	9.4342	
10.684	11.6025	11.0559	
11.0723	14.1659	11.4066	
13.888	13.3864	11.6505	
15.5095	16.3902	9.389	
15.2602	15.2229	9.5918	

Concentration Data
0.111553	0.061817	0.148201
0.143120	0.036734	0.183123
0.293146	0.296711	0.286533
0.322344	0.348662	0.333000
0.333470	0.422112	0.343049
0.414149	0.399777	0.350037
0.460610	0.485845	0.285238
0.453467	0.452398	0.291049

Averaged Data
134.6199	126.8887	126.7945	
127.8247	122.8059	125.5683	
121.8857	119.7901	122.4494	
122.4126	122.7745	123.3413	
122.6228	123.3707	121.0895	
125.1262	122.171	117.2682	
130.7561	123.8161	120.4726	
138.0282	129.8279	127.6846	

Normalized Data
3.8684	2.5695	4.3656	
7.1186	2.5387	7.4328	
14.2023	13.6449	11.63	
17.5711	18.4175	16.2775	
19.8517	21.0467	16.7192	
23.1944	21.4283	19.12	
24.3319	24.7292	17.2986	
24.9177	23.9877	18.019	

Concentration Data
0.133215	0.097433	0.146912
0.222752	0.096584	0.231408
0.417895	0.402540	0.347033
0.510700	0.534017	0.475063
0.573526	0.606446	0.487231
0.665612	0.616959	0.553369
0.696948	0.707893	0.503193
0.713085	0.687466	0.523039

Rate Data
0.0386
0.0902
0.1806
0.2386
0.2671
0.3088
0.2961
0.2923

Rate Data
0.0635
0.0585
0.171
0.2098
0.2362
0.2408
0.2742
0.2817

Rate Data
0.0504
0.0713
0.1164
0.1847
0.1954
0.2522
0.2521
0.2714

Average Rate Data
0.050833
0.073333
0.156
0.211033
0.2329
0.267267
0.274133
0.2818

Standard Deviation Rate Data
0.012456
0.015948
0.034629
0.026971
0.035964
0.036418
0.022
0.01045

Removing concentration: 0.05
Removing rate: 0.050833

Vmax: 0.3733110363815234
Km: 0.33443898548738477
R2_LineweaverBurk: 0.9993115099775884

