Pixel Values
701,298 775,292 852,288 928,286 1010,290 1080,287 1166,288 1240,298 1312,300 
697,363 770,360 848,356 925,355 1010,360 1090,360 1167,363 1242,360 1320,370 
692,432 767,434 844,428 925,428 1008,434 1090,434 1170,435 1246,430 1320,440 
692,502 764,505 847,508 924,502 1006,502 1090,510 1170,510 1246,512 1320,510 
688,578 764,580 845,589 922,578 1004,588 1090,586 1168,586 1246,588 1317,580 
690,647 764,657 842,660 916,656 1006,663 1074,660 1165,660 1242,658 1315,654 
677,730 762,725 842,730 926,739 1004,735 1090,742 1164,730 1240,730 1312,722 
680,795 765,793 844,798 925,806 1002,800 1082,806 1160,800 1241,802 1305,789 

Substrate Concentrations
0.05
0.1
0.25
0.4
0.5
0.6
0.7
0.9

Calibration Concentrations
0.05
0.1
0.2
0.3
0.4
0.5
0.6
0.7

Color Channel: blue

Threshold: 40

Picture files: .\src\May_3_2018\clear-yellow_5_3_18-Image1.jpg .\src\May_3_2018\clear-yellow_5_3_18-Image2.jpg .\src\May_3_2018\clear-yellow_5_3_18-Image3.jpg
Use pixel area selection: true
Raw Data
127.00345423143351	121.33200636942675	119.91828533154722	121.31214953271028	112.88920454545455	116.73496503496503	121.00443599493029	118.89302325581396	117.50691619202604
128.19152157456472	118.8312693498452	117.74984005118363	123.98775510204082	118.21171171171171	122.1941139636819	120.42473821989529	124.6298076923077	117.67345399698341
121.86907630522089	115.4825327510917	112.4863813229572	122.96611143021252	117.165061014772	123.1429418742586	121.76599634369288	127.16726835138387	115.41660489251298
121.54833948339484	115.49364406779661	114.89720194647202	125.02789699570816	122.48613469156763	125.72193732193732	120.26952436876101	126.35816062176166	116.01008645533142
119.46130030959752	115.94417643004824	114.99038461538461	125.26923076923077	123.49012567324955	125.1212814645309	117.83645955451348	128.1920668058455	115.94558823529412
124.71702127659574	118.3101406365655	116.46644736842106	122.89830508474576	119.54585987261146	122.36375	114.76373262739908	133.4287680660702	118.10859728506787
124.9406850459482	124.41163310961969	117.3106936416185	125.00995355009954	119.30878552971576	119.22146739130434	115.7532894736842	138.42368045649073	122.03834355828221
127.21422222222222	127.82771822358346	119.54016212232867	122.38102189781021	119.30885245901639	119.58802308802309	115.96173657100809	142.72734314484896	123.39310884886453

Raw Data
132.36770921386307	128.94140625	123.41364902506963	126.67091024824953	119.87620357634113	123.27576403695807	125.1880341880342	124.41057542768274	123.84139571768438
131.74126984126985	128.06796116504853	121.8717277486911	130.97949619214998	124.86260012322859	129.33311897106108	125.41010498687665	129.46473029045643	124.47410649161196
126.93800322061192	125.7940485512921	119.01715374841169	131.82027929568912	123.46211646837821	133.79433051869722	127.58333333333333	132.55502958579882	121.01038575667656
127.55231689088191	130.14434420541292	120.80831826401446	135.83661202185792	129.00937672366243	138.29752530933632	126.03060046189377	131.38129496402877	123.35217091660924
124.4286865431104	131.2921195652174	121.06767868437697	137.82319819819818	129.5210280373832	138.7047511312217	123.3782816229117	132.89267945984363	123.35915492957747
127.92261457550714	134.25726435152373	121.23828920570264	137.75641025641025	125.76136363636364	136.97846738442053	120.89183937823834	138.19795221843003	124.0250569476082
129.9966414777498	140.33916849015318	123.21218637992831	139.58567603748327	124.9257328990228	135.88623141564318	120.99259259259259	143.63810829335162	128.87260677466864
133.05670103092783	143.74370370370372	126.57909407665505	139.16473149492018	126.07312379730597	137.16540317022742	123.0	147.49445676274945	129.2521467603435

Raw Data
130.9163732394366	129.30721003134795	122.34512022630834	128.1640866873065	120.19972918077184	123.30142857142857	122.71958041958042	125.1395173453997	124.22552858261551
132.38335925349924	130.1826150474799	119.93178717598909	131.09787234042554	124.15532178217822	130.58948043617704	123.60593512767426	129.91767881241566	122.87374903772132
127.09150326797386	131.002196193265	116.95505617977528	135.21424332344213	123.35634328358209	137.0512367491166	126.82616596002423	131.52087114337567	122.02622253720766
128.07148175725987	134.2633504023409	121.66079812206573	139.73531026908293	129.15723612622415	142.3118756936737	125.16926770708284	130.93076923076924	123.20946416144746
125.07245222929936	137.9501025290499	119.38461538461539	143.76535694521306	128.80654761904762	143.87196841511562	123.00712589073635	132.93606998654104	122.35057471264368
130.42233357193987	141.56696738376127	121.35387673956262	144.40364583333334	125.96234567901234	143.14783139890042	120.44973544973546	137.8780977896852	124.60650887573965
130.17940199335547	146.037147102526	123.21656050955414	146.8139686684073	124.6442996742671	142.52278645833334	121.22207534699272	142.49785714285716	127.93618618618619
133.34793597304127	149.99552572706935	126.1218309859155	146.9244105409154	126.87135614702154	143.4786795048143	123.64615384615385	147.51046931407942	129.4155538098979

Calibration Averaged Data
119.2557
119.0491
118.5913
118.1398
116.891
116.4362
118.8958
119.6774

Calibration Normalized Data
-0.3627
5.5807
8.576
8.2184
11.3011
16.9926
19.5279
23.0499

Calibration Slope: 32.3
Calibration Intercept: 0.11

Calibration Averaged Data
124.5147
124.9421
124.2969
124.6914
123.3687
122.4584
124.9326
126.1261

Calibration Normalized Data
-0.1041
4.5226
8.2581
6.6899
9.524
15.7396
18.7055
21.3684

Calibration Slope: 30.5
Calibration Intercept: -0.2603

Calibration Averaged Data
123.4726
123.2398
124.4262
124.1894
122.6789
122.5281
124.5791
126.5309

Calibration Normalized Data
1.6669
6.6779
7.0947
6.7414
10.2572
15.35
17.9188
20.9796

Calibration Slope: 27.2
Calibration Intercept: 1.1515

Averaged Data
123.4609	116.4037	116.9468	
122.9707	117.9808	119.3182	
117.1777	114.8257	119.4655	
118.2228	118.6917	121.3778	
117.2258	119.2403	120.6633	
120.5917	118.0062	117.1548	
121.1257	118.3097	117.531	
123.3772	119.4245	117.6353	

Normalized Data
-2.1289	4.9084	-0.2118	
-4.1394	6.007	2.8759	
-1.6952	8.1404	3.6774	
-2.7292	6.3362	4.3441	
-1.2816	6.0289	4.458	
-2.2816	4.8921	5.209	
3.2859	6.7003	1.6905	
4.4505	2.9565	1.9527	

Concentration Data
-0.069316	0.148557	-0.009963
-0.131560	0.182570	0.085632
-0.055889	0.248619	0.110446
-0.087901	0.192762	0.131087
-0.043084	0.183248	0.134613
-0.074043	0.148053	0.157864
0.098325	0.204034	0.048932
0.134381	0.088127	0.057050

Averaged Data
127.8907	121.6449	122.5321	
126.8065	123.3672	125.1364	
122.9776	121.2396	125.5227	
124.1803	124.9088	127.52	
122.7482	125.2944	126.4497	
124.5805	123.4998	123.3266	
126.6044	124.069	122.9592	
129.8179	126.3261	124.5366	

Normalized Data
1.0507	5.026	0.7437	
1.2615	7.6123	4.1967	
2.8164	10.5807	8.2716	
5.964	10.9278	10.7775	
8.5439	12.5288	12.2551	
9.6768	14.2566	13.6519	
13.7348	15.5167	12.927	
13.9258	12.8386	12.6288	

Concentration Data
0.042984	0.173321	0.032918
0.049895	0.258118	0.146131
0.100875	0.355443	0.279734
0.204075	0.366823	0.361895
0.288662	0.419315	0.410341
0.325807	0.475964	0.456138
0.458856	0.517279	0.432370
0.465118	0.429472	0.422593

Averaged Data
126.6307	121.2724	121.4597	
126.1576	122.0436	123.8806	
122.0233	120.1557	125.0913	
124.8661	125.409	127.1633	
122.2285	124.0956	125.9068	
125.8881	123.6581	123.206	
126.698	123.9304	122.9332	
129.7349	126.4966	125.2588	

Normalized Data
2.6765	6.8917	1.8417	
4.025	9.0543	6.7089	
8.9789	15.0585	11.9599	
9.3973	14.3263	15.1486	
15.7216	19.6698	17.9652	
15.6789	20.7455	19.9418	
19.3391	22.8836	19.5896	
20.2606	20.4278	18.2199	

Concentration Data
0.056066	0.211037	0.025375
0.105643	0.290544	0.204316
0.287772	0.511287	0.397368
0.303154	0.484368	0.514599
0.535665	0.680820	0.618151
0.534096	0.720368	0.690820
0.668662	0.798974	0.677871
0.702540	0.708688	0.627515

Rate Data
0.0627
0.1186
0.1718
0.1955
0.2894
0.3041
0.2852
0.2841

Rate Data
0.0312
0.054
0.1313
0.1458
0.2488
0.2862
0.2975
0.3103

Rate Data
0.0177
0.0593
0.1435
0.1918
0.2418
0.2665
0.3145
0.2852

Average Rate Data
0.0372
0.0773
0.148867
0.1777
0.26
0.2856
0.299067
0.2932

Standard Deviation Rate Data
0.023092
0.035865
0.020777
0.027688
0.025701
0.018807
0.014713
0.014819

Removing concentration: 0.05
Removing rate: 0.0372

Removing concentration: 0.1
Removing rate: 0.0773

Vmax: 0.49865513849423726
Km: 0.552807242980656
R2_LineweaverBurk: 0.8865574684393128

